 Толщина пластины L =   2.0000000E-02
 Число узлов по координате N =           50
 Плотность материала пластины ro =    1200.000    
 Начальная температура T0 =    300.0000    
 Температура на границе x = 0, Th =  -1.0737418E+08
 Температура на границе x = L, Tc =  -1.0737418E+08
 Результат получен с шагом по координате delta
 x =   4.0816327E-04
 Результат получен с шагом по времени deltatau = 
   1.000000    
 Температурное поле в момент времени t = 
   1000.000    
